{
  "Actors": {
    "Actor": [
      {
        "Name": {
          "FirstName": "Mike",
          "LastName": "Johnson"
        },
        "Movies": {
          "Title": [
            "movie1",
            "movie2",
            "movie3"
          ]
        }
      },
      {
        "Name": {
          "FirstName": "Mike",
          "LastName": "Goodman"
        },
        "Movies": {
          "Title": [
            "movie1",
            "movie2",
            "movie3"
          ]
        }
      }
    ]
  }
}
